Wednesday Class Notes
…
source("LifeTableFunctions.R")

# this one is a once-off calc, not taking advantage of our LT functions
readRDS("HMD.rds") %>% 
    group_by(Country, Sex, Year) %>% 
        mutate( qx = mxax_to_qx(mx, ax),
            px = qx_to_px(qx),
            lx = px_to_lx(px),
            dx = lxqx_to_dx(lx, qx),
            Lx = qxax_to_Lx(qx, ax),
            Tx = Lx_to_Tx(Lx),
            ex = Txlx_to_ex(Tx, lx)) 

## # A tibble: 1,030,080 x 13
## # Groups:   Country, Sex, Year [9,280]
##    Country  Year Sex     Age      mx    ax      qx    px    lx      dx
##    <chr>   <int> <chr> <int>   <dbl> <dbl>   <dbl> <dbl> <dbl>   <dbl>
##  1 AUS      1921 f         0 0.0600   0.28 0.0575  0.942 1     0.0575 
##  2 AUS      1921 f         1 0.0121   0.5  0.0120  0.988 0.942 0.0113 
##  3 AUS      1921 f         2 0.00578  0.5  0.00576 0.994 0.931 0.00537
##  4 AUS      1921 f         3 0.00289  0.5  0.00289 0.997 0.926 0.00267
##  5 AUS      1921 f         4 0.00325  0.5  0.00324 0.997 0.923 0.00300
##  6 AUS      1921 f         5 0.00252  0.5  0.00252 0.997 0.920 0.00232
##  7 AUS      1921 f         6 0.00248  0.5  0.00248 0.998 0.918 0.00227
##  8 AUS      1921 f         7 0.00181  0.5  0.00181 0.998 0.916 0.00166
##  9 AUS      1921 f         8 0.00138  0.5  0.00138 0.999 0.914 0.00126
## 10 AUS      1921 f         9 0.00137  0.5  0.00137 0.999 0.913 0.00125
## #  with 1,030,070 more rows, and 3 more variables: Lx <dbl>, Tx <dbl>,
## #   ex <dbl>
…
